Simulation/my_simu_trace.vcd
$date
     May 06, 2020       02:09:43
$end

$version
 SystemC 2.3.3-Accellera --- Mar 22 2020 15:59:11
$end

$timescale
     1 ns
$end

$scope module SystemC $end
$var wire    8  aaaaa  t [7:0]  $end
$upscope $end
$enddefinitions  $end

$comment
All initial values are dumped below at time 0 sec = 0 timescale units.
$end

$dumpvars
b0 aaaaa
$end

#10
b11111111 aaaaa

#20
b11111110 aaaaa

#30
b11111101 aaaaa

#40
b11111100 aaaaa

#50
b11111011 aaaaa

#60
b11111010 aaaaa

#70
b11111001 aaaaa

#80
b11111000 aaaaa

#90
b11110111 aaaaa

#100
b11110110 aaaaa

#110
b11110101 aaaaa

#120
b11110100 aaaaa

#130
b11110011 aaaaa

#140
b11110010 aaaaa

#150
b11110001 aaaaa

#160
b11110000 aaaaa

#170
b11101111 aaaaa

#180
b11101110 aaaaa

#190
b11101101 aaaaa

#200
b11101100 aaaaa

#210
b11101011 aaaaa

#220
b11101010 aaaaa

#230
b11101001 aaaaa

#240
b11101000 aaaaa

#250
b11100111 aaaaa

#260
b11100110 aaaaa

#270
b11100101 aaaaa

#280
b11100100 aaaaa

#290
b11100011 aaaaa

#300
b11100010 aaaaa

#310
b11100001 aaaaa

#320
b11100000 aaaaa

#330
b11011111 aaaaa

#340
b11011110 aaaaa

#350
b11011101 aaaaa

#360
b11011100 aaaaa

#370
b11011011 aaaaa

#380
b11011010 aaaaa

#390
b11011001 aaaaa

#400
b11011000 aaaaa

#410
b11010111 aaaaa

#420
b11010110 aaaaa

#430
b11010101 aaaaa

#440
b11010100 aaaaa

#450
b11010011 aaaaa

#460
b11010010 aaaaa

#470
b11010001 aaaaa

#480
b11010000 aaaaa

#490
b11001111 aaaaa

#500
b11001110 aaaaa

#510
b11001101 aaaaa

#520
b11001100 aaaaa

#530
b11001011 aaaaa

#540
b11001010 aaaaa

#550
b11001001 aaaaa

#560
b11001000 aaaaa

#570
b11000111 aaaaa

#580
b11000110 aaaaa

#590
b11000101 aaaaa

#600
b11000100 aaaaa

#610
b11000011 aaaaa

#620
b11000010 aaaaa

#630
b11000001 aaaaa

#640
b11000000 aaaaa

#650
b10111111 aaaaa

#660
b10111110 aaaaa

#670
b10111101 aaaaa

#680
b10111100 aaaaa

#690
b10111011 aaaaa

#700
b10111010 aaaaa

#710
b10111001 aaaaa

#720
b10111000 aaaaa

#730
b10110111 aaaaa

#740
b10110110 aaaaa

#750
b10110101 aaaaa

#760
b10110100 aaaaa

#770
b10110011 aaaaa

#780
b10110010 aaaaa

#790
b10110001 aaaaa

#800
b10110000 aaaaa

#810
b10101111 aaaaa

#820
b10101110 aaaaa

#830
b10101101 aaaaa

#840
b10101100 aaaaa

#850
b10101011 aaaaa

#860
b10101010 aaaaa

#870
b10101001 aaaaa

#880
b10101000 aaaaa

#890
b10100111 aaaaa

#900
b10100110 aaaaa

#910
b10100101 aaaaa

#920
b10100100 aaaaa

#930
b10100011 aaaaa

#940
b10100010 aaaaa

#950
b10100001 aaaaa

#960
b10100000 aaaaa

#970
b10011111 aaaaa

#980
b10011110 aaaaa

#990
b10011101 aaaaa

#1000
b10011100 aaaaa

